%YAML 1.1
%TAG !u! tag:unity3d.com,2011:
--- !u!1045 &1
EditorBuildSettings:
  m_ObjectHideFlags: 0
  serializedVersion: 2
  m_Scenes:
  - enabled: 1
    path: Assets/Scenes/Menu.unity
    guid: 9005b191e96d9504f853244b9213dd23
  - enabled: 1
    path: Assets/Scenes/Main.unity
    guid: 502ebb9a7d4c30f4b8ec2827387826fa
